project/pd0/verif/sim/verilator/test_pd/test_pd0.vcd
$version Generated by VerilatedVcd $end
$timescale 1ps $end
 $scope module TOP $end
  $scope module top $end
   $var wire 1 K clock $end
   $var wire 1 # reset $end
   $var wire 32 $ counter [31:0] $end
   $var wire 32 L errors [31:0] $end
   $var wire 1 % reset_done $end
   $var wire 1 & reset_neg $end
   $var wire 1 ' reset_reg $end
   $var wire 32 ( reset_counter [31:0] $end
   $var wire 1 ) assign_xor_op1 $end
   $var wire 1 * assign_xor_op2 $end
   $var wire 1 + assign_xor_res $end
   $var wire 2 , alu_sel [1:0] $end
   $var wire 32 - alu_op1 [31:0] $end
   $var wire 32 . alu_op2 [31:0] $end
   $var wire 32 / alu_res [31:0] $end
   $var wire 32 0 reg_rst_inp [31:0] $end
   $var wire 32 1 reg_rst_out [31:0] $end
   $var wire 32 2 tsp_op1 [31:0] $end
   $var wire 32 3 tsp_op2 [31:0] $end
   $var wire 32 4 tsp_out [31:0] $end
   $scope module clkg $end
    $var wire 1 K clk $end
    $var wire 1 # rst $end
    $var wire 32 5 counter [31:0] $end
   $upscope $end
   $scope module dut $end
    $var wire 1 K clk $end
    $var wire 1 # reset $end
    $scope module core $end
     $var wire 32 M DWIDTH [31:0] $end
     $var wire 1 K clk $end
     $var wire 1 # reset $end
     $var wire 32 6 reg_rst_inp [31:0] $end
     $var wire 32 7 reg_rst_out [31:0] $end
     $var wire 32 6 tsp_op1 [31:0] $end
     $var wire 32 8 tsp_op2 [31:0] $end
     $var wire 32 9 tsp_out [31:0] $end
     $var wire 32 6 alu_op1 [31:0] $end
     $var wire 32 : alu_op2 [31:0] $end
     $var wire 32 ; alu_res [31:0] $end
     $var wire 2 < alu_sel [1:0] $end
     $var wire 1 = assign_xor_op1 $end
     $var wire 1 > assign_xor_op2 $end
     $var wire 1 ? assign_xor_res $end
     $scope module alu_inst $end
      $var wire 32 M DWIDTH [31:0] $end
      $var wire 2 < sel_i [1:0] $end
      $var wire 32 6 op1_i [31:0] $end
      $var wire 32 : op2_i [31:0] $end
      $var wire 32 ; res_o [31:0] $end
      $var wire 1 @ zero_o $end
      $var wire 1 A neg_o $end
     $upscope $end
     $scope module assign_0 $end
      $var wire 1 = op1_i $end
      $var wire 1 > op2_i $end
      $var wire 1 ? res_o $end
     $upscope $end
     $scope module reg_inst $end
      $var wire 32 M DWIDTH [31:0] $end
      $var wire 1 K clk $end
      $var wire 1 # rst $end
      $var wire 32 6 in_i [31:0] $end
      $var wire 32 7 out_o [31:0] $end
     $upscope $end
     $scope module tsp_inst $end
      $var wire 32 M DWIDTH [31:0] $end
      $var wire 1 K clk $end
      $var wire 1 # rst $end
      $var wire 32 6 op1_i [31:0] $end
      $var wire 32 8 op2_i [31:0] $end
      $var wire 32 9 res_o [31:0] $end
      $var wire 32 B op1_reg_out [31:0] $end
      $var wire 32 C op2_reg_out [31:0] $end
      $var wire 32 D stage1_alu_out [31:0] $end
      $var wire 32 E sum_reg_out [31:0] $end
      $var wire 32 F stage2_alu_out [31:0] $end
      $scope module alu_add $end
       $var wire 32 M DWIDTH [31:0] $end
       $var wire 2 N sel_i [1:0] $end
       $var wire 32 B op1_i [31:0] $end
       $var wire 32 C op2_i [31:0] $end
       $var wire 32 D res_o [31:0] $end
       $var wire 1 G zero_o $end
       $var wire 1 H neg_o $end
      $upscope $end
      $scope module alu_sub $end
       $var wire 32 M DWIDTH [31:0] $end
       $var wire 2 O sel_i [1:0] $end
       $var wire 32 E op1_i [31:0] $end
       $var wire 32 B op2_i [31:0] $end
       $var wire 32 F res_o [31:0] $end
       $var wire 1 I zero_o $end
       $var wire 1 J neg_o $end
      $upscope $end
      $scope module reg_op1 $end
       $var wire 32 M DWIDTH [31:0] $end
       $var wire 1 K clk $end
       $var wire 1 # rst $end
       $var wire 32 6 in_i [31:0] $end
       $var wire 32 B out_o [31:0] $end
      $upscope $end
      $scope module reg_op2 $end
       $var wire 32 M DWIDTH [31:0] $end
       $var wire 1 K clk $end
       $var wire 1 # rst $end
       $var wire 32 8 in_i [31:0] $end
       $var wire 32 C out_o [31:0] $end
      $upscope $end
      $scope module reg_sub $end
       $var wire 32 M DWIDTH [31:0] $end
       $var wire 1 K clk $end
       $var wire 1 # rst $end
       $var wire 32 F in_i [31:0] $end
       $var wire 32 9 out_o [31:0] $end
      $upscope $end
      $scope module reg_sum $end
       $var wire 32 M DWIDTH [31:0] $end
       $var wire 1 K clk $end
       $var wire 1 # rst $end
       $var wire 32 D in_i [31:0] $end
       $var wire 32 E out_o [31:0] $end
      $upscope $end
     $upscope $end
    $upscope $end
   $upscope $end
  $upscope $end
 $upscope $end
$enddefinitions $end


#0
1#
b00000000000000000000000000000000 $
0%
0&
0'
b00000000000000000000000000000000 (
0)
0*
0+
b00 ,
b00000000000000000000000000000000 -
b00000000000000000000000000000000 .
b00000000000000000000000000000000 /
b00000000000000000000000000000000 0
b00000000000000000000000000000000 1
b00000000000000000000000000000000 2
b00000000000000000000000000000000 3
b00000000000000000000000000000000 4
b00000000000000000000000000000000 5
b00000000000000000000000000000000 6
b00000000000000000000000000000000 7
b00000000000000000000000000000000 8
b00000000000000000000000000000000 9
b00000000000000000000000000000000 :
b00000000000000000000000000000000 ;
b00 <
0=
0>
0?
1@
0A
b00000000000000000000000000000000 B
b00000000000000000000000000000000 C
b00000000000000000000000000000000 D
b00000000000000000000000000000000 E
b00000000000000000000000000000000 F
1G
0H
1I
0J
0K
b00000000000000000000000000000000 L
b00000000000000000000000000100000 M
b00 N
b01 O
#1
b00000000000000000000000000000001 $
1'
b00000000000000000000000000000001 5
b00000000000000000000000000000001 6
b00100000000000000000000000000000 8
b00100000000000000000000000000000 :
b11100000000000000000000000000001 ;
b01 <
1=
1?
0@
1A
1K
#2
0K
#3
b00000000000000000000000000000010 $
1)
1+
b01 ,
b00000000000000000000000000000001 -
b00100000000000000000000000000000 .
b11100000000000000000000000000001 /
b00000000000000000000000000000001 0
b00000000000000000000000000000001 2
b00100000000000000000000000000000 3
b00000000000000000000000000000010 5
b00000000000000000000000000000010 6
b10000000000000000000000000000000 8
b00010000000000000000000000000000 :
b00000000000000000000000000000000 ;
b10 <
0=
1>
1@
0A
1K
#4
0K
#5
b00000000000000000000000000000011 $
0)
1*
b10 ,
b00000000000000000000000000000010 -
b00010000000000000000000000000000 .
b00000000000000000000000000000000 /
b00000000000000000000000000000010 0
b00000000000000000000000000000010 2
b10000000000000000000000000000000 3
b00000000000000000000000000000011 5
b00000000000000000000000000000011 6
b10100000000000000000000000000000 8
b00110000000000000000000000000000 :
b00110000000000000000000000000011 ;
b11 <
1=
0?
0@
1K
#6
0K
#7
b00000000000000000000000000000100 $
1)
0+
b11 ,
b00000000000000000000000000000011 -
b00110000000000000000000000000000 .
b00110000000000000000000000000011 /
b00000000000000000000000000000011 0
b00000000000000000000000000000011 2
b10100000000000000000000000000000 3
b00000000000000000000000000000100 5
b00000000000000000000000000000100 6
b01000000000000000000000000000000 8
b10000000000000000000000000000000 :
b10000000000000000000000000000100 ;
b00 <
0=
0>
1A
1K
#8
0K
#9
b00000000000000000000000000000101 $
0)
0*
b00 ,
b00000000000000000000000000000100 -
b10000000000000000000000000000000 .
b10000000000000000000000000000100 /
b00000000000000000000000000000100 0
b00000000000000000000000000000100 2
b01000000000000000000000000000000 3
b00000000000000000000000000000101 5
b00000000000000000000000000000101 6
b01100000000000000000000000000000 8
b10100000000000000000000000000000 :
b01100000000000000000000000000101 ;
b01 <
1=
1?
0A
1K
#10
0K
#11
0#
b00000000000000000000000000000110 $
1)
1+
b01 ,
b00000000000000000000000000000101 -
b10100000000000000000000000000000 .
b01100000000000000000000000000101 /
b00000000000000000000000000000101 0
b00000000000000000000000000000101 2
b01100000000000000000000000000000 3
b00000000000000000000000000000110 5
b00000000000000000000000000000110 6
b11000000000000000000000000000000 8
b10010000000000000000000000000000 :
b00000000000000000000000000000000 ;
b10 <
0=
1>
1@
1K
#12
0K
#13
b00000000000000000000000000000111 $
1&
0'
b00000000000000000000000000000001 (
0)
1*
b10 ,
b00000000000000000000000000000110 -
b10010000000000000000000000000000 .
b00000000000000000000000000000000 /
b00000000000000000000000000000110 0
b00000000000000000000000000000110 2
b11000000000000000000000000000000 3
b00000000000000000000000000000111 5
b00000000000000000000000000000111 6
b00000000000000000000000000000110 7
b11100000000000000000000000000000 8
b10110000000000000000000000000000 :
b10110000000000000000000000000111 ;
b11 <
1=
0?
0@
1A
b00000000000000000000000000000110 B
b11000000000000000000000000000000 C
b11000000000000000000000000000110 D
b11111111111111111111111111111010 F
0G
1H
0I
1J
1K
#14
0K
#15
b00000000000000000000000000001000 $
b00000000000000000000000000000010 (
1)
0+
b11 ,
b00000000000000000000000000000111 -
b10110000000000000000000000000000 .
b10110000000000000000000000000111 /
b00000000000000000000000000000111 0
b00000000000000000000000000000110 1
b00000000000000000000000000000111 2
b11100000000000000000000000000000 3
b00000000000000000000000000001000 5
b00000000000000000000000000001000 6
b00000000000000000000000000000111 7
b00000000000000000000000000000001 8
b11111111111111111111111111111010 9
b01000000000000000000000000000000 :
b01000000000000000000000000001000 ;
b00 <
0=
0>
0A
b00000000000000000000000000000111 B
b11100000000000000000000000000000 C
b11100000000000000000000000000111 D
b11000000000000000000000000000110 E
b10111111111111111111111111111111 F
1K
#16
0K
#17
b00000000000000000000000000001001 $
b00000000000000000000000000000011 (
0)
0*
b00 ,
b00000000000000000000000000001000 -
b01000000000000000000000000000000 .
b01000000000000000000000000001000 /
b00000000000000000000000000001000 0
b00000000000000000000000000000111 1
b00000000000000000000000000001000 2
b00000000000000000000000000000001 3
b11111111111111111111111111111010 4
b00000000000000000000000000001001 5
b00000000000000000000000000001001 6
b00000000000000000000000000001000 7
b00100000000000000000000000000001 8
b10111111111111111111111111111111 9
b01100000000000000000000000000000 :
b10100000000000000000000000001001 ;
b01 <
1=
1?
1A
b00000000000000000000000000001000 B
b00000000000000000000000000000001 C
b00000000000000000000000000001001 D
b11100000000000000000000000000111 E
b11011111111111111111111111111111 F
0H
1K
#18
0K
#19
b00000000000000000000000000001010 $
1%
b00000000000000000000000000000100 (
1)
1+
b01 ,
b00000000000000000000000000001001 -
b01100000000000000000000000000000 .
b10100000000000000000000000001001 /
b00000000000000000000000000001001 0
b00000000000000000000000000001000 1
b00000000000000000000000000001001 2
b00100000000000000000000000000001 3
b10111111111111111111111111111111 4
b00000000000000000000000000001010 5
b00000000000000000000000000001010 6
b00000000000000000000000000001001 7
b10000000000000000000000000000001 8
b11011111111111111111111111111111 9
b01010000000000000000000000000000 :
b00000000000000000000000000000000 ;
b10 <
0=
1>
1@
0A
b00000000000000000000000000001001 B
b00100000000000000000000000000001 C
b00100000000000000000000000001010 D
b00000000000000000000000000001001 E
b00000000000000000000000000000000 F
1I
0J
1K
#20
0K
#21
b00000000000000000000000000001011 $
b00000000000000000000000000000101 (
0)
1*
b10 ,
b00000000000000000000000000001010 -
b01010000000000000000000000000000 .
b00000000000000000000000000000000 /
b00000000000000000000000000001010 0
b00000000000000000000000000001001 1
b00000000000000000000000000001010 2
b10000000000000000000000000000001 3
b11011111111111111111111111111111 4
b00000000000000000000000000001011 5
b00000000000000000000000000001011 6
b00000000000000000000000000001010 7
b10100000000000000000000000000001 8
b00000000000000000000000000000000 9
b01110000000000000000000000000000 :
b01110000000000000000000000001011 ;
b11 <
1=
0?
0@
b00000000000000000000000000001010 B
b10000000000000000000000000000001 C
b10000000000000000000000000001011 D
b00100000000000000000000000001010 E
b00100000000000000000000000000000 F
1H
0I
1K
#22
0K
#23
b00000000000000000000000000001100 $
b00000000000000000000000000000110 (
1)
0+
b11 ,
b00000000000000000000000000001011 -
b01110000000000000000000000000000 .
b01110000000000000000000000001011 /
b00000000000000000000000000001011 0
b00000000000000000000000000001010 1
b00000000000000000000000000001011 2
b10100000000000000000000000000001 3
b00000000000000000000000000000000 4
b00000000000000000000000000001100 5
b00000000000000000000000000001100 6
b00000000000000000000000000001011 7
b01000000000000000000000000000001 8
b00100000000000000000000000000000 9
b11000000000000000000000000000000 :
b11000000000000000000000000001100 ;
b00 <
0=
0>
1A
b00000000000000000000000000001011 B
b10100000000000000000000000000001 C
b10100000000000000000000000001100 D
b10000000000000000000000000001011 E
b10000000000000000000000000000000 F
1J
1K
#24
0K
#25
b00000000000000000000000000001101 $
b00000000000000000000000000000111 (
0)
0*
b00 ,
b00000000000000000000000000001100 -
b11000000000000000000000000000000 .
b11000000000000000000000000001100 /
b00000000000000000000000000001100 0
b00000000000000000000000000001011 1
b00000000000000000000000000001100 2
b01000000000000000000000000000001 3
b00100000000000000000000000000000 4
b00000000000000000000000000001101 5
b00000000000000000000000000001101 6
b00000000000000000000000000001100 7
b01100000000000000000000000000001 8
b10000000000000000000000000000000 9
b11100000000000000000000000000000 :
b00100000000000000000000000001101 ;
b01 <
1=
1?
0A
b00000000000000000000000000001100 B
b01000000000000000000000000000001 C
b01000000000000000000000000001101 D
b10100000000000000000000000001100 E
b10100000000000000000000000000000 F
0H
1K
#26
0K
#27
b00000000000000000000000000001110 $
b00000000000000000000000000001000 (
1)
1+
b01 ,
b00000000000000000000000000001101 -
b11100000000000000000000000000000 .
b00100000000000000000000000001101 /
b00000000000000000000000000001101 0
b00000000000000000000000000001100 1
b00000000000000000000000000001101 2
b01100000000000000000000000000001 3
b10000000000000000000000000000000 4
b00000000000000000000000000001110 5
b00000000000000000000000000001110 6
b00000000000000000000000000001101 7
b11000000000000000000000000000001 8
b10100000000000000000000000000000 9
b11010000000000000000000000000000 :
b00000000000000000000000000000000 ;
b10 <
0=
1>
1@
b00000000000000000000000000001101 B
b01100000000000000000000000000001 C
b01100000000000000000000000001110 D
b01000000000000000000000000001101 E
b01000000000000000000000000000000 F
0J
1K
#28
0K
#29
b00000000000000000000000000001111 $
b00000000000000000000000000001001 (
0)
1*
b10 ,
b00000000000000000000000000001110 -
b11010000000000000000000000000000 .
b00000000000000000000000000000000 /
b00000000000000000000000000001110 0
b00000000000000000000000000001101 1
b00000000000000000000000000001110 2
b11000000000000000000000000000001 3
b10100000000000000000000000000000 4
b00000000000000000000000000001111 5
b00000000000000000000000000001111 6
b00000000000000000000000000001110 7
b11100000000000000000000000000001 8
b01000000000000000000000000000000 9
b11110000000000000000000000000000 :
b11110000000000000000000000001111 ;
b11 <
1=
0?
0@
1A
b00000000000000000000000000001110 B
b11000000000000000000000000000001 C
b11000000000000000000000000001111 D
b01100000000000000000000000001110 E
b01100000000000000000000000000000 F
1H
1K
#30
0K
#31
b00000000000000000000000000010000 $
b00000000000000000000000000001010 (
1)
0+
b11 ,
b00000000000000000000000000001111 -
b11110000000000000000000000000000 .
b11110000000000000000000000001111 /
b00000000000000000000000000001111 0
b00000000000000000000000000001110 1
b00000000000000000000000000001111 2
b11100000000000000000000000000001 3
b01000000000000000000000000000000 4
b00000000000000000000000000010000 5
b00000000000000000000000000010000 6
b00000000000000000000000000001111 7
b00000000000000000000000000000010 8
b01100000000000000000000000000000 9
b00000000000000000000000000000001 :
b00000000000000000000000000010001 ;
b00 <
0=
0>
0A
b00000000000000000000000000001111 B
b11100000000000000000000000000001 C
b11100000000000000000000000010000 D
b11000000000000000000000000001111 E
b11000000000000000000000000000000 F
1J
1K
#32
0K
#33
b00000000000000000000000000010001 $
b00000000000000000000000000001011 (
0)
0*
b00 ,
b00000000000000000000000000010000 -
b00000000000000000000000000000001 .
b00000000000000000000000000010001 /
b00000000000000000000000000010000 0
b00000000000000000000000000001111 1
b00000000000000000000000000010000 2
b00000000000000000000000000000010 3
b01100000000000000000000000000000 4
b00000000000000000000000000010001 5
b00000000000000000000000000010001 6
b00000000000000000000000000010000 7
b00100000000000000000000000000010 8
b11000000000000000000000000000000 9
b00100000000000000000000000000001 :
b11100000000000000000000000010000 ;
b01 <
1=
1?
1A
b00000000000000000000000000010000 B
b00000000000000000000000000000010 C
b00000000000000000000000000010010 D
b11100000000000000000000000010000 E
b11100000000000000000000000000000 F
0H
1K
#34
0K
#35
b00000000000000000000000000010010 $
b00000000000000000000000000001100 (
1)
1+
b01 ,
b00000000000000000000000000010001 -
b00100000000000000000000000000001 .
b11100000000000000000000000010000 /
b00000000000000000000000000010001 0
b00000000000000000000000000010000 1
b00000000000000000000000000010001 2
b00100000000000000000000000000010 3
b11000000000000000000000000000000 4
b00000000000000000000000000010010 5
b00000000000000000000000000010010 6
b00000000000000000000000000010001 7
b10000000000000000000000000000010 8
b11100000000000000000000000000000 9
b00010000000000000000000000000001 :
b00000000000000000000000000000000 ;
b10 <
0=
1>
1@
0A
b00000000000000000000000000010001 B
b00100000000000000000000000000010 C
b00100000000000000000000000010011 D
b00000000000000000000000000010010 E
b00000000000000000000000000000001 F
0J
1K
#36
0K
#37
b00000000000000000000000000010011 $
b00000000000000000000000000001101 (
0)
1*
b10 ,
b00000000000000000000000000010010 -
b00010000000000000000000000000001 .
b00000000000000000000000000000000 /
b00000000000000000000000000010010 0
b00000000000000000000000000010001 1
b00000000000000000000000000010010 2
b10000000000000000000000000000010 3
b11100000000000000000000000000000 4
b00000000000000000000000000010011 5
b00000000000000000000000000010011 6
b00000000000000000000000000010010 7
b10100000000000000000000000000010 8
b00000000000000000000000000000001 9
b00110000000000000000000000000001 :
b00110000000000000000000000010011 ;
b11 <
1=
0?
0@
b00000000000000000000000000010010 B
b10000000000000000000000000000010 C
b10000000000000000000000000010100 D
b00100000000000000000000000010011 E
b00100000000000000000000000000001 F
1H
1K
#38
0K
#39
b00000000000000000000000000010100 $
b00000000000000000000000000001110 (
1)
0+
b11 ,
b00000000000000000000000000010011 -
b00110000000000000000000000000001 .
b00110000000000000000000000010011 /
b00000000000000000000000000010011 0
b00000000000000000000000000010010 1
b00000000000000000000000000010011 2
b10100000000000000000000000000010 3
b00000000000000000000000000000001 4
b00000000000000000000000000010100 5
b00000000000000000000000000010100 6
b00000000000000000000000000010011 7
b01000000000000000000000000000010 8
b00100000000000000000000000000001 9
b10000000000000000000000000000001 :
b10000000000000000000000000010101 ;
b00 <
0=
0>
1A
b00000000000000000000000000010011 B
b10100000000000000000000000000010 C
b10100000000000000000000000010101 D
b10000000000000000000000000010100 E
b10000000000000000000000000000001 F
1J
1K
#40
0K
#41
b00000000000000000000000000010101 $
b00000000000000000000000000001111 (
0)
0*
b00 ,
b00000000000000000000000000010100 -
b10000000000000000000000000000001 .
b10000000000000000000000000010101 /
b00000000000000000000000000010100 0
b00000000000000000000000000010011 1
b00000000000000000000000000010100 2
b01000000000000000000000000000010 3
b00100000000000000000000000000001 4
b00000000000000000000000000010101 5
b00000000000000000000000000010101 6
b00000000000000000000000000010100 7
b01100000000000000000000000000010 8
b10000000000000000000000000000001 9
b10100000000000000000000000000001 :
b01100000000000000000000000010100 ;
b01 <
1=
1?
0A
b00000000000000000000000000010100 B
b01000000000000000000000000000010 C
b01000000000000000000000000010110 D
b10100000000000000000000000010101 E
b10100000000000000000000000000001 F
0H
1K
#42
0K
#43
b00000000000000000000000000010110 $
b00000000000000000000000000010000 (
1)
1+
b01 ,
b00000000000000000000000000010101 -
b10100000000000000000000000000001 .
b01100000000000000000000000010100 /
b00000000000000000000000000010101 0
b00000000000000000000000000010100 1
b00000000000000000000000000010101 2
b01100000000000000000000000000010 3
b10000000000000000000000000000001 4
b00000000000000000000000000010110 5
b00000000000000000000000000010110 6
b00000000000000000000000000010101 7
b11000000000000000000000000000010 8
b10100000000000000000000000000001 9
b10010000000000000000000000000001 :
b00000000000000000000000000000000 ;
b10 <
0=
1>
1@
b00000000000000000000000000010101 B
b01100000000000000000000000000010 C
b01100000000000000000000000010111 D
b01000000000000000000000000010110 E
b01000000000000000000000000000001 F
0J
1K
#44
0K
#45
b00000000000000000000000000010111 $
b00000000000000000000000000010001 (
0)
1*
b10 ,
b00000000000000000000000000010110 -
b10010000000000000000000000000001 .
b00000000000000000000000000000000 /
b00000000000000000000000000010110 0
b00000000000000000000000000010101 1
b00000000000000000000000000010110 2
b11000000000000000000000000000010 3
b10100000000000000000000000000001 4
b00000000000000000000000000010111 5
b00000000000000000000000000010111 6
b00000000000000000000000000010110 7
b11100000000000000000000000000010 8
b01000000000000000000000000000001 9
b10110000000000000000000000000001 :
b10110000000000000000000000010111 ;
b11 <
1=
0?
0@
1A
b00000000000000000000000000010110 B
b11000000000000000000000000000010 C
b11000000000000000000000000011000 D
b01100000000000000000000000010111 E
b01100000000000000000000000000001 F
1H
1K
#46
0K
#47
b00000000000000000000000000011000 $
b00000000000000000000000000010010 (
1)
0+
b11 ,
b00000000000000000000000000010111 -
b10110000000000000000000000000001 .
b10110000000000000000000000010111 /
b00000000000000000000000000010111 0
b00000000000000000000000000010110 1
b00000000000000000000000000010111 2
b11100000000000000000000000000010 3
b01000000000000000000000000000001 4
b00000000000000000000000000011000 5
b00000000000000000000000000011000 6
b00000000000000000000000000010111 7
b00000000000000000000000000000011 8
b01100000000000000000000000000001 9
b01000000000000000000000000000001 :
b01000000000000000000000000011001 ;
b00 <
0=
0>
0A
b00000000000000000000000000010111 B
b11100000000000000000000000000010 C
b11100000000000000000000000011001 D
b11000000000000000000000000011000 E
b11000000000000000000000000000001 F
1J
1K
#48
0K
#49
b00000000000000000000000000011001 $
b00000000000000000000000000010011 (
0)
0*
b00 ,
b00000000000000000000000000011000 -
b01000000000000000000000000000001 .
b01000000000000000000000000011001 /
b00000000000000000000000000011000 0
b00000000000000000000000000010111 1
b00000000000000000000000000011000 2
b00000000000000000000000000000011 3
b01100000000000000000000000000001 4
b00000000000000000000000000011001 5
b00000000000000000000000000011001 6
b00000000000000000000000000011000 7
b00100000000000000000000000000011 8
b11000000000000000000000000000001 9
b01100000000000000000000000000001 :
b10100000000000000000000000011000 ;
b01 <
1=
1?
1A
b00000000000000000000000000011000 B
b00000000000000000000000000000011 C
b00000000000000000000000000011011 D
b11100000000000000000000000011001 E
b11100000000000000000000000000001 F
0H
1K
#50
0K
#51
b00000000000000000000000000011010 $
b00000000000000000000000000010100 (
1)
1+
b01 ,
b00000000000000000000000000011001 -
b01100000000000000000000000000001 .
b10100000000000000000000000011000 /
b00000000000000000000000000011001 0
b00000000000000000000000000011000 1
b00000000000000000000000000011001 2
b00100000000000000000000000000011 3
b11000000000000000000000000000001 4
b00000000000000000000000000011010 5
b00000000000000000000000000011010 6
b00000000000000000000000000011001 7
b10000000000000000000000000000011 8
b11100000000000000000000000000001 9
b01010000000000000000000000000001 :
b00000000000000000000000000000000 ;
b10 <
0=
1>
1@
0A
b00000000000000000000000000011001 B
b00100000000000000000000000000011 C
b00100000000000000000000000011100 D
b00000000000000000000000000011011 E
b00000000000000000000000000000010 F
0J
1K
#52
0K
#53
b00000000000000000000000000011011 $
b00000000000000000000000000010101 (
0)
1*
b10 ,
b00000000000000000000000000011010 -
b01010000000000000000000000000001 .
b00000000000000000000000000000000 /
b00000000000000000000000000011010 0
b00000000000000000000000000011001 1
b00000000000000000000000000011010 2
b10000000000000000000000000000011 3
b11100000000000000000000000000001 4
b00000000000000000000000000011011 5
b00000000000000000000000000011011 6
b00000000000000000000000000011010 7
b10100000000000000000000000000011 8
b00000000000000000000000000000010 9
b01110000000000000000000000000001 :
b01110000000000000000000000011011 ;
b11 <
1=
0?
0@
b00000000000000000000000000011010 B
b10000000000000000000000000000011 C
b10000000000000000000000000011101 D
b00100000000000000000000000011100 E
b00100000000000000000000000000010 F
1H
1K
#54
0K
#55
b00000000000000000000000000011100 $
b00000000000000000000000000010110 (
1)
0+
b11 ,
b00000000000000000000000000011011 -
b01110000000000000000000000000001 .
b01110000000000000000000000011011 /
b00000000000000000000000000011011 0
b00000000000000000000000000011010 1
b00000000000000000000000000011011 2
b10100000000000000000000000000011 3
b00000000000000000000000000000010 4
b00000000000000000000000000011100 5
b00000000000000000000000000011100 6
b00000000000000000000000000011011 7
b01000000000000000000000000000011 8
b00100000000000000000000000000010 9
b11000000000000000000000000000001 :
b11000000000000000000000000011101 ;
b00 <
0=
0>
1A
b00000000000000000000000000011011 B
b10100000000000000000000000000011 C
b10100000000000000000000000011110 D
b10000000000000000000000000011101 E
b10000000000000000000000000000010 F
1J
1K
#56
0K
#57
b00000000000000000000000000011101 $
b00000000000000000000000000010111 (
0)
0*
b00 ,
b00000000000000000000000000011100 -
b11000000000000000000000000000001 .
b11000000000000000000000000011101 /
b00000000000000000000000000011100 0
b00000000000000000000000000011011 1
b00000000000000000000000000011100 2
b01000000000000000000000000000011 3
b00100000000000000000000000000010 4
b00000000000000000000000000011101 5
b00000000000000000000000000011101 6
b00000000000000000000000000011100 7
b01100000000000000000000000000011 8
b10000000000000000000000000000010 9
b11100000000000000000000000000001 :
b00100000000000000000000000011100 ;
b01 <
1=
1?
0A
b00000000000000000000000000011100 B
b01000000000000000000000000000011 C
b01000000000000000000000000011111 D
b10100000000000000000000000011110 E
b10100000000000000000000000000010 F
0H
1K
#58
0K
#59
b00000000000000000000000000011110 $
b00000000000000000000000000011000 (
1)
1+
b01 ,
b00000000000000000000000000011101 -
b11100000000000000000000000000001 .
b00100000000000000000000000011100 /
b00000000000000000000000000011101 0
b00000000000000000000000000011100 1
b00000000000000000000000000011101 2
b01100000000000000000000000000011 3
b10000000000000000000000000000010 4
b00000000000000000000000000011110 5
b00000000000000000000000000011110 6
b00000000000000000000000000011101 7
b11000000000000000000000000000011 8
b10100000000000000000000000000010 9
b11010000000000000000000000000001 :
b00000000000000000000000000000000 ;
b10 <
0=
1>
1@
b00000000000000000000000000011101 B
b01100000000000000000000000000011 C
b01100000000000000000000000100000 D
b01000000000000000000000000011111 E
b01000000000000000000000000000010 F
0J
1K
#60
0K
#61
b00000000000000000000000000011111 $
b00000000000000000000000000011001 (
0)
1*
b10 ,
b00000000000000000000000000011110 -
b11010000000000000000000000000001 .
b00000000000000000000000000000000 /
b00000000000000000000000000011110 0
b00000000000000000000000000011101 1
b00000000000000000000000000011110 2
b11000000000000000000000000000011 3
b10100000000000000000000000000010 4
b00000000000000000000000000011111 5
b00000000000000000000000000011111 6
b00000000000000000000000000011110 7
b11100000000000000000000000000011 8
b01000000000000000000000000000010 9
b11110000000000000000000000000001 :
b11110000000000000000000000011111 ;
b11 <
1=
0?
0@
1A
b00000000000000000000000000011110 B
b11000000000000000000000000000011 C
b11000000000000000000000000100001 D
b01100000000000000000000000100000 E
b01100000000000000000000000000010 F
1H
1K
#62
0K
#63
b00000000000000000000000000100000 $
b00000000000000000000000000011010 (
1)
0+
b11 ,
b00000000000000000000000000011111 -
b11110000000000000000000000000001 .
b11110000000000000000000000011111 /
b00000000000000000000000000011111 0
b00000000000000000000000000011110 1
b00000000000000000000000000011111 2
b11100000000000000000000000000011 3
b01000000000000000000000000000010 4
b00000000000000000000000000100000 5
b00000000000000000000000000100000 6
b00000000000000000000000000011111 7
b00000000000000000000000000000100 8
b01100000000000000000000000000010 9
b00000000000000000000000000000010 :
b00000000000000000000000000100010 ;
b00 <
0=
0>
0A
b00000000000000000000000000011111 B
b11100000000000000000000000000011 C
b11100000000000000000000000100010 D
b11000000000000000000000000100001 E
b11000000000000000000000000000010 F
1J
1K
#64
0K
#65
b00000000000000000000000000100001 $
b00000000000000000000000000011011 (
0)
0*
b00 ,
b00000000000000000000000000100000 -
b00000000000000000000000000000010 .
b00000000000000000000000000100010 /
b00000000000000000000000000100000 0
b00000000000000000000000000011111 1
b00000000000000000000000000100000 2
b00000000000000000000000000000100 3
b01100000000000000000000000000010 4
b00000000000000000000000000100001 5
b00000000000000000000000000100001 6
b00000000000000000000000000100000 7
b00100000000000000000000000000100 8
b11000000000000000000000000000010 9
b00100000000000000000000000000010 :
b11100000000000000000000000011111 ;
b01 <
1=
1?
1A
b00000000000000000000000000100000 B
b00000000000000000000000000000100 C
b00000000000000000000000000100100 D
b11100000000000000000000000100010 E
b11100000000000000000000000000010 F
0H
1K
#66
0K
#67
b00000000000000000000000000100010 $
b00000000000000000000000000011100 (
1)
1+
b01 ,
b00000000000000000000000000100001 -
b00100000000000000000000000000010 .
b11100000000000000000000000011111 /
b00000000000000000000000000100001 0
b00000000000000000000000000100000 1
b00000000000000000000000000100001 2
b00100000000000000000000000000100 3
b11000000000000000000000000000010 4
b00000000000000000000000000100010 5
b00000000000000000000000000100010 6
b00000000000000000000000000100001 7
b10000000000000000000000000000100 8
b11100000000000000000000000000010 9
b00010000000000000000000000000010 :
b00000000000000000000000000000010 ;
b10 <
0=
1>
0A
b00000000000000000000000000100001 B
b00100000000000000000000000000100 C
b00100000000000000000000000100101 D
b00000000000000000000000000100100 E
b00000000000000000000000000000011 F
0J
1K
#68
0K
#69
b00000000000000000000000000100011 $
b00000000000000000000000000011101 (
0)
1*
b10 ,
b00000000000000000000000000100010 -
b00010000000000000000000000000010 .
b00000000000000000000000000000010 /
b00000000000000000000000000100010 0
b00000000000000000000000000100001 1
b00000000000000000000000000100010 2
b10000000000000000000000000000100 3
b11100000000000000000000000000010 4
b00000000000000000000000000100011 5
b00000000000000000000000000100011 6
b00000000000000000000000000100010 7
b10100000000000000000000000000100 8
b00000000000000000000000000000011 9
b00110000000000000000000000000010 :
b00110000000000000000000000100011 ;
b11 <
1=
0?
b00000000000000000000000000100010 B
b10000000000000000000000000000100 C
b10000000000000000000000000100110 D
b00100000000000000000000000100101 E
b00100000000000000000000000000011 F
1H
1K
#70
0K
